<?xml version="1.0" encoding="utf-8"?>
<!-- Generator: Adobe Illustrator 22.0.1, SVG Export Plug-In . SVG Version: 6.00 Build 0)  -->
<svg version="1.1" id="Layer_1" xmlns="http://www.w3.org/2000/svg" xmlns:xlink="http://www.w3.org/1999/xlink" x="0px" y="0px"
	 viewBox="0 0 495 497" style="enable-background:new 0 0 495 497;" xml:space="preserve">
<style type="text/css">
	.st0{fill:#E9E8E4;}
	.st1{fill:url(#path2_fill_1_);}
	.st2{fill:url(#path3_fill_1_);}
	.st3{fill:url(#path4_fill_1_);}
	.st4{fill:url(#path5_fill_1_);}
	.st5{fill:url(#path6_fill_1_);}
	.st6{fill:url(#path7_fill_1_);}
</style>
<g>
	
		<image style="overflow:visible;opacity:0.3;" width="427" height="429" xlink:href="D4E3E0147F9F4A7E.png"  transform="matrix(1 0 0 1 34 39)">
	</image>
	<g>
		<g>
			<g id="Vector_80_">
				<g transform="translate(1742.12 -59.9392)">
					<path id="path0_fill_13_" d="M-1494.6,353.2c24.6,0,44.6-20,44.6-44.6h-89.2C-1539.2,333.2-1519.2,353.2-1494.6,353.2z"/>
				</g>
			</g>
			<g id="Vector_79_">
				<g transform="translate(1742.12 -104.576)">
					<path id="path1_fill_13_" class="st0" d="M-1494.6,308.6c-24.6,0-44.6,20-44.6,44.6h89.2
						C-1450,328.6-1469.9,308.6-1494.6,308.6z"/>
				</g>
			</g>
			<g id="Vector_78_">
				<g transform="translate(1587 -231.831)">
					
						<linearGradient id="path2_fill_1_" gradientUnits="userSpaceOnUse" x1="-12187.6094" y1="251.1227" x2="-12186.6084" y2="251.1227" gradientTransform="matrix(139.468 1.0325 -1.0313 139.627 1698504.125 -22085.6191)">
						<stop  offset="0" style="stop-color:#B81B7E"/>
						<stop  offset="1" style="stop-color:#FA49BB"/>
					</linearGradient>
					<path id="path2_fill_13_" class="st1" d="M-1454.5,479.4c0.3-42.3,23.5-79,57.7-98.8l-41.3-71.6c-63,36.3-99,98.4-99,171.1
						l82.6,0.1C-1454.5,480-1454.5,479.7-1454.5,479.4z"/>
				</g>
			</g>
			<g id="Vector_77_">
				<g transform="translate(1685.96 -259)">
					
						<linearGradient id="path3_fill_1_" gradientUnits="userSpaceOnUse" x1="-12688.6055" y1="272.9116" x2="-12687.6055" y2="272.9116" gradientTransform="matrix(197.477 1.4619 -1.4602 197.702 2504569.25 -35047.957)">
						<stop  offset="0" style="stop-color:#E8000B"/>
						<stop  offset="0.5" style="stop-color:#B5151A"/>
						<stop  offset="1" style="stop-color:#CF3E43"/>
					</linearGradient>
					<path id="path3_fill_13_" class="st2" d="M-1437.6,392.3c20.7,0.1,40,5.8,56.7,15.6l41.4-71.6c-63-36.5-134.6-36.7-197.5-0.3
						l41.2,71.7C-1478.7,397.8-1458.8,392.1-1437.6,392.3z"/>
				</g>
			</g>
			<g id="Vector_76_">
				<g transform="translate(1842.12 -231.607)">
					
						<linearGradient id="path4_fill_1_" gradientUnits="userSpaceOnUse" x1="-13465.1865" y1="250.7497" x2="-13464.1865" y2="250.7497" gradientTransform="matrix(140.665 1.0413 -1.0402 140.825 1892804.125 -20896.3379)">
						<stop  offset="0" style="stop-color:#FF6700"/>
						<stop  offset="1" style="stop-color:#FF944D"/>
					</linearGradient>
					<path id="path4_fill_13_" class="st3" d="M-1479.7,480.2l82.6,0.1c0.1-72.7-35.7-134.9-98.5-171.4l-41.4,71.6
						C-1502.7,400.5-1479.7,437.6-1479.7,480.2z"/>
				</g>
			</g>
			<g id="Vector_75_">
				<g transform="translate(1841.74 -60.313)">
					
						<linearGradient id="path5_fill_1_" gradientUnits="userSpaceOnUse" x1="-13463.1445" y1="78.39" x2="-13462.1445" y2="78.39" gradientTransform="matrix(139.468 1.0325 -1.0313 139.627 1876221.875 3349.3176)">
						<stop  offset="0" style="stop-color:#FFE05D"/>
						<stop  offset="1" style="stop-color:#D1A900"/>
					</linearGradient>
					<path id="path5_fill_13_" class="st4" d="M-1479.2,309c0,0.2,0,0.4,0,0.7c-0.3,42.3-23.5,79-57.7,98.8l41.2,71.7
						c63-36.3,98.9-98.4,99-171.1L-1479.2,309z"/>
				</g>
			</g>
			<g id="Vector_74_">
				<g transform="translate(1685.58 38.9789)">
					
						<linearGradient id="path6_fill_1_" gradientUnits="userSpaceOnUse" x1="-12686.7148" y1="-26.5727" x2="-12685.7148" y2="-26.5727" gradientTransform="matrix(197.478 1.4619 -1.4603 197.702 2503771.5 24157.9941)">
						<stop  offset="0" style="stop-color:#048A1E"/>
						<stop  offset="1" style="stop-color:#27DB2F"/>
					</linearGradient>
					<path id="path6_fill_13_" class="st5" d="M-1439,324.8c-20.7-0.1-40-5.8-56.7-15.6l-41.4,71.6c62.9,36.4,134.5,36.6,197.5,0.2
						l-41.2-71.7C-1398,319.3-1417.8,325-1439,324.8z"/>
				</g>
			</g>
			<g id="Vector_73_">
				<g transform="translate(1587 -60.7617)">
					
						<linearGradient id="path7_fill_1_" gradientUnits="userSpaceOnUse" x1="-12187.7842" y1="78.6791" x2="-12186.7842" y2="78.6791" gradientTransform="matrix(140.664 1.0413 -1.0401 140.824 1712926.625 2005.3571)">
						<stop  offset="0" style="stop-color:#102FA3"/>
						<stop  offset="1" style="stop-color:#5A77E3"/>
					</linearGradient>
					<path id="path7_fill_13_" class="st6" d="M-1454.5,309.2l-82.6-0.2c-0.1,72.7,35.7,134.9,98.5,171.4l41.4-71.6
						C-1431.5,388.9-1454.6,351.7-1454.5,309.2z"/>
				</g>
			</g>
		</g>
	</g>
</g>
</svg>
